…
Which parameter values for selection effects give rise to an OR at least as extreme as 0.17 under a true null effect.

```{r}
x$param
# A tibble: 762 x 9
#>      pA    pY    pAY     b0        ba       by   bay     ps1       or
#>   <dbl> <dbl>  <dbl>  <dbl>     <dbl>    <dbl> <dbl>   <dbl>    <dbl>
#> 1 0.277   0.1 0.0277 0.0131 -0.000503 -0.0126      0 0.0117  7.18e-15
#> 2 0.277   0.1 0.0277 0.0131 -0.00201  -0.0111      0 0.0114  2.04e-15
#> 3 0.277   0.1 0.0277 0.0131 -0.00352  -0.00955     0 0.0111  1.35e-15
#> 4 0.277   0.1 0.0277 0.0151 -0.00653  -0.00804     0 0.0125  1.26e- 1
#> 5 0.277   0.1 0.0277 0.0131 -0.00503  -0.00804     0 0.0109  5.61e-15
#> 6 0.277   0.1 0.0277 0.0101 -0.00201  -0.00804     0 0.00869 8.63e-15
#> 7 0.277   0.1 0.0277 0.0151 -0.00804  -0.00653     0 0.0122  1.26e- 1
#> 8 0.277   0.1 0.0277 0.0131 -0.00653  -0.00653     0 0.0106  5.31e-15
#> 9 0.277   0.1 0.0277 0.0121 -0.00503  -0.00653     0 0.0100  1.56e- 1
#> 10 0.277   0.1 0.0277 0.0101 -0.00352  -0.00653     0 0.00842 6.07e-15
# ... with 752 more rows
```
…
